termcolor>=1.1
tabulate>=0.7.7
tqdm>4.11.1
pyarrow>=0.9.0
pyzmq>=16

msgpack
msgpack_numpy
datetime
setproctitle
pillow
matplotlib

Cython>=0.19.2
numpy>=1.7.1
scipy>=0.13.2
opencv-python

pycocotools
tensorflow==1.13.2